%YAML 1.1
%TAG !u! tag:unity3d.com,2011:
--- !u!114 &11400000
MonoBehaviour:
  m_ObjectHideFlags: 0
  m_CorrespondingSourceObject: {fileID: 0}
  m_PrefabInstance: {fileID: 0}
  m_PrefabAsset: {fileID: 0}
  m_GameObject: {fileID: 0}
  m_Enabled: 1
  m_EditorHideFlags: 0
  m_Script: {fileID: 11500000, guid: f27aee60dc501be4ca9fe08d12c637f1, type: 3}
  m_Name: BattleCity.GlobalAsset
  m_EditorClassIdentifier: 
  tankGunSprites:
    reorderableList:
      canAdd: 1
      canRemove: 1
      draggable: 1
      expandable: 1
      multipleSelection: 1
      isExpanded: 0
      label:
        m_Text: Keys
        m_Image: {fileID: 0}
        m_Tooltip: 
      headerHeight: 18
      footerHeight: 13
      slideEasing: 0.15
      verticalSpacing: 2
      showDefaultBackground: 1
      elementDisplayType: 0
      elementNameProperty: 
      elementNameOverride: 
      elementIcon: {fileID: 0}
    reqReferences: {fileID: 0}
    isExpanded: 0
    _keyValues: 00010203
    _keys: 00010203
    _values:
    - reorderableList:
        canAdd: 1
        canRemove: 1
        draggable: 1
        expandable: 1
        multipleSelection: 1
        isExpanded: 1
        label:
          m_Text: Keys
          m_Image: {fileID: 0}
          m_Tooltip: 
        headerHeight: 18
        footerHeight: 13
        slideEasing: 0.15
        verticalSpacing: 2
        showDefaultBackground: 1
        elementDisplayType: 0
        elementNameProperty: 
        elementNameOverride: 
        elementIcon: {fileID: 0}
      reqReferences: {fileID: 0}
      isExpanded: 1
      _keyValues: 00000000010000000200000003000000
      _keys: 00000000010000000200000003000000
      _values:
      - {fileID: 21300000, guid: 8e7d2300740080949a8693ac78668456, type: 3}
      - {fileID: 21300000, guid: a5a9180637a0ad44ea1551f33a3bdadf, type: 3}
      - {fileID: 21300000, guid: 76b1355f25bba3e47b6bd319e3ad2d37, type: 3}
      - {fileID: 21300000, guid: 18e8e0505ceff1941bab4243f651a0e1, type: 3}
    - reorderableList:
        canAdd: 1
        canRemove: 1
        draggable: 1
        expandable: 1
        multipleSelection: 1
        isExpanded: 1
        label:
          m_Text: Keys
          m_Image: {fileID: 0}
          m_Tooltip: 
        headerHeight: 18
        footerHeight: 13
        slideEasing: 0.15
        verticalSpacing: 2
        showDefaultBackground: 1
        elementDisplayType: 0
        elementNameProperty: 
        elementNameOverride: 
        elementIcon: {fileID: 0}
      reqReferences: {fileID: 0}
      isExpanded: 1
      _keyValues: 00000000010000000200000003000000
      _keys: 00000000010000000200000003000000
      _values:
      - {fileID: 21300000, guid: f9cbfe5a42057314eb0a2e7b7c8682ce, type: 3}
      - {fileID: 21300000, guid: 30ad93231f9ca7b4dae21c6ad6289a7e, type: 3}
      - {fileID: 21300000, guid: 241d90796819da34b9809072cb680a5a, type: 3}
      - {fileID: 21300000, guid: dc03e9f13d8a36e438e723e05ccefcbd, type: 3}
    - reorderableList:
        canAdd: 1
        canRemove: 1
        draggable: 1
        expandable: 1
        multipleSelection: 1
        isExpanded: 1
        label:
          m_Text: Keys
          m_Image: {fileID: 0}
          m_Tooltip: 
        headerHeight: 18
        footerHeight: 13
        slideEasing: 0.15
        verticalSpacing: 2
        showDefaultBackground: 1
        elementDisplayType: 0
        elementNameProperty: 
        elementNameOverride: 
        elementIcon: {fileID: 0}
      reqReferences: {fileID: 0}
      isExpanded: 1
      _keyValues: 00000000010000000200000003000000
      _keys: 00000000010000000200000003000000
      _values:
      - {fileID: 21300000, guid: 9dc1279b66f0d3f4a819429d456b52c4, type: 3}
      - {fileID: 21300000, guid: b2848b77c4157fb4aa7e1b3c2b69ae01, type: 3}
      - {fileID: 21300000, guid: eb10a5b96229e51479f3b0f1bd8b3349, type: 3}
      - {fileID: 21300000, guid: b00401061f385f246a9cee6b69ccb86f, type: 3}
    - reorderableList:
        canAdd: 1
        canRemove: 1
        draggable: 1
        expandable: 1
        multipleSelection: 1
        isExpanded: 1
        label:
          m_Text: Keys
          m_Image: {fileID: 0}
          m_Tooltip: 
        headerHeight: 18
        footerHeight: 13
        slideEasing: 0.15
        verticalSpacing: 2
        showDefaultBackground: 1
        elementDisplayType: 0
        elementNameProperty: 
        elementNameOverride: 
        elementIcon: {fileID: 0}
      reqReferences: {fileID: 0}
      isExpanded: 1
      _keyValues: 00000000010000000200000003000000
      _keys: 00000000010000000200000003000000
      _values:
      - {fileID: 21300000, guid: ce3a3c9c1d07a974a8ed3a95b2efa023, type: 3}
      - {fileID: 21300000, guid: 0db6c070ec9aa104694105ddb1048258, type: 3}
      - {fileID: 21300000, guid: b5d976c2b1f1e024fb05de7a5806e91c, type: 3}
      - {fileID: 21300000, guid: be93e7d876dbd3d488ad43a4d00a1b1a, type: 3}
  tankGunAnims:
    reorderableList:
      canAdd: 1
      canRemove: 1
      draggable: 1
      expandable: 1
      multipleSelection: 1
      isExpanded: 0
      label:
        m_Text: Keys
        m_Image: {fileID: 0}
        m_Tooltip: 
      headerHeight: 18
      footerHeight: 13
      slideEasing: 0.15
      verticalSpacing: 2
      showDefaultBackground: 1
      elementDisplayType: 0
      elementNameProperty: 
      elementNameOverride: 
      elementIcon: {fileID: 0}
    reqReferences: {fileID: 0}
    isExpanded: 0
    _keyValues: 01030200
    _keys: 01030200
    _values:
    - reorderableList:
        canAdd: 1
        canRemove: 1
        draggable: 1
        expandable: 1
        multipleSelection: 1
        isExpanded: 1
        label:
          m_Text: Keys
          m_Image: {fileID: 0}
          m_Tooltip: 
        headerHeight: 18
        footerHeight: 13
        slideEasing: 0.15
        verticalSpacing: 2
        showDefaultBackground: 1
        elementDisplayType: 0
        elementNameProperty: 
        elementNameOverride: 
        elementIcon: {fileID: 0}
      reqReferences: {fileID: 0}
      isExpanded: 1
      _keyValues: 03000000000000000200000001000000
      _keys: 03000000000000000200000001000000
      _values:
      - {fileID: 9100000, guid: 9a2d8420816dcc64d8f10e85992a68a7, type: 2}
      - {fileID: 9100000, guid: 5e64a5bcfa05ad14bb7969eda091131c, type: 2}
      - {fileID: 9100000, guid: 34103a1be74dd3b419b652e18065d0d7, type: 2}
      - {fileID: 9100000, guid: dade6ecedb664494e84e01d505ec88f3, type: 2}
    - reorderableList:
        canAdd: 1
        canRemove: 1
        draggable: 1
        expandable: 1
        multipleSelection: 1
        isExpanded: 1
        label:
          m_Text: Keys
          m_Image: {fileID: 0}
          m_Tooltip: 
        headerHeight: 18
        footerHeight: 13
        slideEasing: 0.15
        verticalSpacing: 2
        showDefaultBackground: 1
        elementDisplayType: 0
        elementNameProperty: 
        elementNameOverride: 
        elementIcon: {fileID: 0}
      reqReferences: {fileID: 0}
      isExpanded: 1
      _keyValues: 03000000000000000200000001000000
      _keys: 03000000000000000200000001000000
      _values:
      - {fileID: 9100000, guid: 3ab6051416006fa498f3b65f7d64ffc3, type: 2}
      - {fileID: 9100000, guid: e95a9a8e93cc0ff49a05d6ceb43322aa, type: 2}
      - {fileID: 9100000, guid: 9d88c72970015e74cb5f432c4f9c6795, type: 2}
      - {fileID: 9100000, guid: 5b2c9614d048c9b40b9155210433e0e8, type: 2}
    - reorderableList:
        canAdd: 1
        canRemove: 1
        draggable: 1
        expandable: 1
        multipleSelection: 1
        isExpanded: 1
        label:
          m_Text: Keys
          m_Image: {fileID: 0}
          m_Tooltip: 
        headerHeight: 18
        footerHeight: 13
        slideEasing: 0.15
        verticalSpacing: 2
        showDefaultBackground: 1
        elementDisplayType: 0
        elementNameProperty: 
        elementNameOverride: 
        elementIcon: {fileID: 0}
      reqReferences: {fileID: 0}
      isExpanded: 1
      _keyValues: 03000000000000000200000001000000
      _keys: 03000000000000000200000001000000
      _values:
      - {fileID: 9100000, guid: d7b78799f99e52e4f90076a4922c8214, type: 2}
      - {fileID: 9100000, guid: 76e15183a5623ae4999dfc38eb4509d9, type: 2}
      - {fileID: 9100000, guid: f97d2a88fa90d4d43b2708c05d4558e6, type: 2}
      - {fileID: 9100000, guid: 2768519eb785dc4429d983fd814a5e9c, type: 2}
    - reorderableList:
        canAdd: 1
        canRemove: 1
        draggable: 1
        expandable: 1
        multipleSelection: 1
        isExpanded: 1
        label:
          m_Text: Keys
          m_Image: {fileID: 0}
          m_Tooltip: 
        headerHeight: 18
        footerHeight: 13
        slideEasing: 0.15
        verticalSpacing: 2
        showDefaultBackground: 1
        elementDisplayType: 0
        elementNameProperty: 
        elementNameOverride: 
        elementIcon: {fileID: 0}
      reqReferences: {fileID: 0}
      isExpanded: 1
      _keyValues: 03000000000000000200000001000000
      _keys: 03000000000000000200000001000000
      _values:
      - {fileID: 9100000, guid: 357cdc5f8d1080e4b8234e789029dae0, type: 2}
      - {fileID: 9100000, guid: c324d5f76fbc72d42a747023d4e66eb7, type: 2}
      - {fileID: 9100000, guid: 94b3f1de6379ff847ab3c4db7e1cee42, type: 2}
      - {fileID: 9100000, guid: 55e8d8370a902a54cbbac44ad080b283, type: 2}
  defaultCampaign: {fileID: 4900000, guid: 29a2b21322a22534285792070e575e81, type: 2}
  enemyStat:
    moveSpeed:
      reorderableList:
        canAdd: 1
        canRemove: 1
        draggable: 1
        expandable: 1
        multipleSelection: 1
        isExpanded: 1
        label:
          m_Text: Keys
          m_Image: {fileID: 0}
          m_Tooltip: 
        headerHeight: 18
        footerHeight: 13
        slideEasing: 0.15
        verticalSpacing: 2
        showDefaultBackground: 1
        elementDisplayType: 0
        elementNameProperty: 
        elementNameOverride: 
        elementIcon: {fileID: 0}
      reqReferences: {fileID: 0}
      isExpanded: 1
      _keyValues: 00000000010000000200000003000000
      _keys: 00000000010000000200000003000000
      _values:
      - 0.05
      - 0.07
      - 0.04
      - 0.03
    bulletSpeed:
      reorderableList:
        canAdd: 1
        canRemove: 1
        draggable: 1
        expandable: 1
        multipleSelection: 1
        isExpanded: 1
        label:
          m_Text: Keys
          m_Image: {fileID: 0}
          m_Tooltip: 
        headerHeight: 18
        footerHeight: 13
        slideEasing: 0.15
        verticalSpacing: 2
        showDefaultBackground: 1
        elementDisplayType: 0
        elementNameProperty: 
        elementNameOverride: 
        elementIcon: {fileID: 0}
      reqReferences: {fileID: 0}
      isExpanded: 1
      _keyValues: 00000000010000000200000003000000
      _keys: 00000000010000000200000003000000
      _values:
      - 0.1
      - 0.12
      - 0.08
      - 0.07
    delayShootSeconds:
      reorderableList:
        canAdd: 1
        canRemove: 1
        draggable: 1
        expandable: 1
        multipleSelection: 1
        isExpanded: 1
        label:
          m_Text: Keys
          m_Image: {fileID: 0}
          m_Tooltip: 
        headerHeight: 18
        footerHeight: 13
        slideEasing: 0.15
        verticalSpacing: 2
        showDefaultBackground: 1
        elementDisplayType: 0
        elementNameProperty: 
        elementNameOverride: 
        elementIcon: {fileID: 0}
      reqReferences: {fileID: 0}
      isExpanded: 1
      _keyValues: 00000000010000000200000003000000
      _keys: 00000000010000000200000003000000
      _values:
      - 0.4
      - 0.6
      - 0.8
      - 1
    colorPossibilities:
      reorderableList:
        canAdd: 1
        canRemove: 1
        draggable: 1
        expandable: 1
        multipleSelection: 1
        isExpanded: 1
        label:
          m_Text: Keys
          m_Image: {fileID: 0}
          m_Tooltip: 
        headerHeight: 18
        footerHeight: 13
        slideEasing: 0.15
        verticalSpacing: 2
        showDefaultBackground: 1
        elementDisplayType: 0
        elementNameProperty: 
        elementNameOverride: 
        elementIcon: {fileID: 0}
      reqReferences: {fileID: 0}
      isExpanded: 1
      _keyValues: 00000000010000000200000003000000
      _keys: 00000000010000000200000003000000
      _values:
      - reorderableList:
          canAdd: 1
          canRemove: 1
          draggable: 1
          expandable: 1
          multipleSelection: 1
          isExpanded: 1
          label:
            m_Text: Keys
            m_Image: {fileID: 0}
            m_Tooltip: 
          headerHeight: 18
          footerHeight: 13
          slideEasing: 0.15
          verticalSpacing: 2
          showDefaultBackground: 1
          elementDisplayType: 0
          elementNameProperty: 
          elementNameOverride: 
          elementIcon: {fileID: 0}
        reqReferences: {fileID: 0}
        isExpanded: 1
        _keyValues: 03010002
        _keys: 03010002
        _values:
        - {x: 0, y: 0.05}
        - {x: 0.05, y: 0.1}
        - {x: 0.1, y: 0.5}
        - {x: 0.5, y: 1}
      - reorderableList:
          canAdd: 1
          canRemove: 1
          draggable: 1
          expandable: 1
          multipleSelection: 1
          isExpanded: 1
          label:
            m_Text: Keys
            m_Image: {fileID: 0}
            m_Tooltip: 
          headerHeight: 18
          footerHeight: 13
          slideEasing: 0.15
          verticalSpacing: 2
          showDefaultBackground: 1
          elementDisplayType: 0
          elementNameProperty: 
          elementNameOverride: 
          elementIcon: {fileID: 0}
        reqReferences: {fileID: 0}
        isExpanded: 1
        _keyValues: 03010002
        _keys: 03010002
        _values:
        - {x: 0, y: 0.05}
        - {x: 0.05, y: 0.1}
        - {x: 0.1, y: 0.4}
        - {x: 0.4, y: 1}
      - reorderableList:
          canAdd: 1
          canRemove: 1
          draggable: 1
          expandable: 1
          multipleSelection: 1
          isExpanded: 1
          label:
            m_Text: Keys
            m_Image: {fileID: 0}
            m_Tooltip: 
          headerHeight: 18
          footerHeight: 13
          slideEasing: 0.15
          verticalSpacing: 2
          showDefaultBackground: 1
          elementDisplayType: 0
          elementNameProperty: 
          elementNameOverride: 
          elementIcon: {fileID: 0}
        reqReferences: {fileID: 0}
        isExpanded: 1
        _keyValues: 03010002
        _keys: 03010002
        _values:
        - {x: 0, y: 0.15}
        - {x: 0.15, y: 0.4}
        - {x: 0.4, y: 0.7}
        - {x: 0.7, y: 1}
      - reorderableList:
          canAdd: 1
          canRemove: 1
          draggable: 1
          expandable: 1
          multipleSelection: 1
          isExpanded: 1
          label:
            m_Text: Keys
            m_Image: {fileID: 0}
            m_Tooltip: 
          headerHeight: 18
          footerHeight: 13
          slideEasing: 0.15
          verticalSpacing: 2
          showDefaultBackground: 1
          elementDisplayType: 0
          elementNameProperty: 
          elementNameOverride: 
          elementIcon: {fileID: 0}
        reqReferences: {fileID: 0}
        isExpanded: 1
        _keyValues: 03010002
        _keys: 03010002
        _values:
        - {x: 0, y: 0.2}
        - {x: 0.2, y: 0.6}
        - {x: 0.6, y: 0.8}
        - {x: 0.8, y: 1}
    normalHP:
      reorderableList:
        canAdd: 1
        canRemove: 1
        draggable: 1
        expandable: 1
        multipleSelection: 1
        isExpanded: 1
        label:
          m_Text: Keys
          m_Image: {fileID: 0}
          m_Tooltip: 
        headerHeight: 18
        footerHeight: 13
        slideEasing: 0.15
        verticalSpacing: 2
        showDefaultBackground: 1
        elementDisplayType: 0
        elementNameProperty: 
        elementNameOverride: 
        elementIcon: {fileID: 0}
      reqReferences: {fileID: 0}
      isExpanded: 1
      _keyValues: 00000000010000000200000003000000
      _keys: 00000000010000000200000003000000
      _values:
      - reorderableList:
          canAdd: 1
          canRemove: 1
          draggable: 1
          expandable: 1
          multipleSelection: 1
          isExpanded: 1
          label:
            m_Text: Keys
            m_Image: {fileID: 0}
            m_Tooltip: 
          headerHeight: 18
          footerHeight: 13
          slideEasing: 0.15
          verticalSpacing: 2
          showDefaultBackground: 1
          elementDisplayType: 0
          elementNameProperty: 
          elementNameOverride: 
          elementIcon: {fileID: 0}
        reqReferences: {fileID: 0}
        isExpanded: 1
        _keyValues: 020001
        _keys: 020001
        _values: 010100
      - reorderableList:
          canAdd: 1
          canRemove: 1
          draggable: 1
          expandable: 1
          multipleSelection: 1
          isExpanded: 1
          label:
            m_Text: Keys
            m_Image: {fileID: 0}
            m_Tooltip: 
          headerHeight: 18
          footerHeight: 13
          slideEasing: 0.15
          verticalSpacing: 2
          showDefaultBackground: 1
          elementDisplayType: 0
          elementNameProperty: 
          elementNameOverride: 
          elementIcon: {fileID: 0}
        reqReferences: {fileID: 0}
        isExpanded: 1
        _keyValues: 020001
        _keys: 020001
        _values: 010100
      - reorderableList:
          canAdd: 1
          canRemove: 1
          draggable: 1
          expandable: 1
          multipleSelection: 1
          isExpanded: 1
          label:
            m_Text: Keys
            m_Image: {fileID: 0}
            m_Tooltip: 
          headerHeight: 18
          footerHeight: 13
          slideEasing: 0.15
          verticalSpacing: 2
          showDefaultBackground: 1
          elementDisplayType: 0
          elementNameProperty: 
          elementNameOverride: 
          elementIcon: {fileID: 0}
        reqReferences: {fileID: 0}
        isExpanded: 1
        _keyValues: 020001
        _keys: 020001
        _values: 010101
      - reorderableList:
          canAdd: 1
          canRemove: 1
          draggable: 1
          expandable: 1
          multipleSelection: 1
          isExpanded: 1
          label:
            m_Text: Keys
            m_Image: {fileID: 0}
            m_Tooltip: 
          headerHeight: 18
          footerHeight: 13
          slideEasing: 0.15
          verticalSpacing: 2
          showDefaultBackground: 1
          elementDisplayType: 0
          elementNameProperty: 
          elementNameOverride: 
          elementIcon: {fileID: 0}
        reqReferences: {fileID: 0}
        isExpanded: 1
        _keyValues: 020001
        _keys: 020001
        _values: 010201
